Process
=======
link

Command Line
============
/home/usuario/Desarrollo/Android/Sdk/ndk/21.1.6352462/toolchains/llvm/prebuilt/linux-x86_64/bin/clang++ /home/usuario/IdeaProjects/SpaceCubos/target/client/aarch64-android/gvm/>SpaceCubos/launcher.o /home/usuario/IdeaProjects/SpaceCubos/target/client/aarch64-android/gvm/>SpaceCubos/javafx_adapter.o /home/usuario/IdeaProjects/SpaceCubos/target/client/aarch64-android/gvm/>SpaceCubos/touch_events.o /home/usuario/IdeaProjects/SpaceCubos/target/client/aarch64-android/gvm/>SpaceCubos/glibc_shim.o /home/usuario/IdeaProjects/SpaceCubos/target/client/aarch64-android/gvm/>SpaceCubos/attach_adapter.o /home/usuario/IdeaProjects/SpaceCubos/target/client/aarch64-android/gvm/>SpaceCubos/logger.o /home/usuario/IdeaProjects/SpaceCubos/target/client/aarch64-android/gvm/tmp/SVM-1621129318617/es.iesalbarregas.proyectofinal.modelo.app.o -ljava -lnio -lzip -lnet -lprefs -ljvm -lfdlibm -lz -ldl -lj2pkcs11 -lsunec -ljaas -lextnet -target aarch64-linux-android21 -fPIC -fuse-ld=gold -Wl,--rosegment,--gc-sections,-z,noexecstack -shared -landroid -llog -lffi -llibchelper -static-libstdc++ -Wl,--whole-archive -lprism_es2_monocle -lglass_monocle -ljavafx_font_freetype -ljavafx_iio -Wl,--no-whole-archive -lGLESv2 -lEGL -lfreetype -o /home/usuario/IdeaProjects/SpaceCubos/target/client/aarch64-android/lib>SpaceCubos.so -L/home/usuario/.gluon/substrate/javafxStaticSdk/17-ea+7/android-aarch64/sdk/lib -L/home/usuario/Desarrollo/graalvm-ce-java11-21.1.0/lib/svm/clibraries/android-aarch64 -L/home/usuario/.gluon/substrate/javaStaticSdk/11-ea+1/android-aarch64/labs-staticjdk/lib/static -L/home/usuario/IdeaProjects/SpaceCubos/target/client/aarch64-android/gvm/lib -Wl,--whole-archive /home/usuario/IdeaProjects/SpaceCubos/target/client/aarch64-android/gvm/lib/libstatusbar.a /home/usuario/IdeaProjects/SpaceCubos/target/client/aarch64-android/gvm/lib/libstorage.a /home/usuario/IdeaProjects/SpaceCubos/target/client/aarch64-android/gvm/lib/libdisplay.a /home/usuario/IdeaProjects/SpaceCubos/target/client/aarch64-android/gvm/lib/liblifecycle.a /home/usuario/IdeaProjects/SpaceCubos/target/client/aarch64-android/gvm/lib/libutil.a -Wl,--no-whole-archive

Output
======


Result
======
result: 0