[jue. jun. 03 20:01:43 CEST 2021][INFO] ==================== LINK TASK ====================
[jue. jun. 03 20:01:43 CEST 2021][FINE] Looking for resource: /native/android/c/launcher.c
[jue. jun. 03 20:01:43 CEST 2021][FINE] Looking for resource: /native/android/c/javafx_adapter.c
[jue. jun. 03 20:01:43 CEST 2021][FINE] Looking for resource: /native/android/c/touch_events.c
[jue. jun. 03 20:01:43 CEST 2021][FINE] Looking for resource: /native/android/c/glibc_shim.c
[jue. jun. 03 20:01:43 CEST 2021][FINE] Looking for resource: /native/android/c/attach_adapter.c
[jue. jun. 03 20:01:43 CEST 2021][FINE] Looking for resource: /native/android/c/logger.c
[jue. jun. 03 20:01:43 CEST 2021][FINE] Looking for resource: /native/android/c/grandroid.h
[jue. jun. 03 20:01:43 CEST 2021][FINE] Looking for resource: /native/android/c/grandroid_ext.h
[jue. jun. 03 20:01:43 CEST 2021][FINE] PB Command for compile-additional-sources: /home/usuario/Desarrollo/Android/Sdk/ndk/21.1.6352462/toolchains/llvm/prebuilt/linux-x86_64/bin/clang -c -DSUBSTRATE -target aarch64-linux-android -I. -I/home/usuario/IdeaProjects/SpaceCubos/target/client/aarch64-android/gvm/>SpaceCubos launcher.c javafx_adapter.c touch_events.c glibc_shim.c attach_adapter.c logger.c
[jue. jun. 03 20:01:43 CEST 2021][FINE] Start process compile-additional-sources...
[jue. jun. 03 20:01:43 CEST 2021][FINE] [SUB] launcher.c:52:12: warning: 'extern' variable has an initializer [-Wextern-initializer]
[jue. jun. 03 20:01:43 CEST 2021][FINE] [SUB] extern int __svm_vm_is_static_binary __attribute__((weak)) = 1;
[jue. jun. 03 20:01:43 CEST 2021][FINE] [SUB]            ^
[jue. jun. 03 20:01:43 CEST 2021][FINE] [SUB] 1 warning generated.
[jue. jun. 03 20:01:43 CEST 2021][FINE] [SUB] javafx_adapter.c:114:5: warning: incompatible pointer types passing 'void **' to parameter of type 'JNIEnv **' (aka 'const struct JNINativeInterface ***') [-Wincompatible-pointer-types]
[jue. jun. 03 20:01:43 CEST 2021][FINE] [SUB]     ATTACH_DALVIK();
[jue. jun. 03 20:01:43 CEST 2021][FINE] [SUB]     ^~~~~~~~~~~~~~~
[jue. jun. 03 20:01:43 CEST 2021][FINE] [SUB] ./grandroid_ext.h:81:56: note: expanded from macro 'ATTACH_DALVIK'
[jue. jun. 03 20:01:43 CEST 2021][FINE] [SUB]     (*dalvikVM)->AttachCurrentThreadAsDaemon(dalvikVM, (void **) &dalvikEnv, NULL); \
[jue. jun. 03 20:01:43 CEST 2021][FINE] [SUB]                                                        ^~~~~~~~~~~~~~~~~~~~
[jue. jun. 03 20:01:43 CEST 2021][FINE] [SUB] javafx_adapter.c:135:5: warning: incompatible pointer types passing 'void **' to parameter of type 'JNIEnv **' (aka 'const struct JNINativeInterface ***') [-Wincompatible-pointer-types]
[jue. jun. 03 20:01:43 CEST 2021][FINE] [SUB]     ATTACH_DALVIK();
[jue. jun. 03 20:01:43 CEST 2021][FINE] [SUB]     ^~~~~~~~~~~~~~~
[jue. jun. 03 20:01:43 CEST 2021][FINE] [SUB] ./grandroid_ext.h:81:56: note: expanded from macro 'ATTACH_DALVIK'
[jue. jun. 03 20:01:43 CEST 2021][FINE] [SUB]     (*dalvikVM)->AttachCurrentThreadAsDaemon(dalvikVM, (void **) &dalvikEnv, NULL); \
[jue. jun. 03 20:01:43 CEST 2021][FINE] [SUB]                                                        ^~~~~~~~~~~~~~~~~~~~
[jue. jun. 03 20:01:43 CEST 2021][FINE] [SUB] 2 warnings generated.
[jue. jun. 03 20:01:43 CEST 2021][FINE] Result for compile-additional-sources: 0
[jue. jun. 03 20:01:43 CEST 2021][FINE] PB Command for link: /home/usuario/Desarrollo/Android/Sdk/ndk/21.1.6352462/toolchains/llvm/prebuilt/linux-x86_64/bin/clang++ /home/usuario/IdeaProjects/SpaceCubos/target/client/aarch64-android/gvm/>SpaceCubos/launcher.o /home/usuario/IdeaProjects/SpaceCubos/target/client/aarch64-android/gvm/>SpaceCubos/javafx_adapter.o /home/usuario/IdeaProjects/SpaceCubos/target/client/aarch64-android/gvm/>SpaceCubos/touch_events.o /home/usuario/IdeaProjects/SpaceCubos/target/client/aarch64-android/gvm/>SpaceCubos/glibc_shim.o /home/usuario/IdeaProjects/SpaceCubos/target/client/aarch64-android/gvm/>SpaceCubos/attach_adapter.o /home/usuario/IdeaProjects/SpaceCubos/target/client/aarch64-android/gvm/>SpaceCubos/logger.o /home/usuario/IdeaProjects/SpaceCubos/target/client/aarch64-android/gvm/tmp/SVM-1622743094346/es.iesalbarregas.proyectofinal.modelo.app.o -ljava -lnio -lzip -lnet -lprefs -ljvm -lfdlibm -lz -ldl -lj2pkcs11 -lsunec -ljaas -lextnet -target aarch64-linux-android21 -fPIC -fuse-ld=gold -Wl,--rosegment,--gc-sections,-z,noexecstack -shared -landroid -llog -lffi -llibchelper -static-libstdc++ -Wl,--whole-archive -lprism_es2_monocle -lglass_monocle -ljavafx_font_freetype -ljavafx_iio -Wl,--no-whole-archive -lGLESv2 -lEGL -lfreetype -o /home/usuario/IdeaProjects/SpaceCubos/target/client/aarch64-android/lib>SpaceCubos.so -L/home/usuario/.gluon/substrate/javafxStaticSdk/17-ea+7/android-aarch64/sdk/lib -L/home/usuario/Desarrollo/graalvm-ce-java11-21.1.0/lib/svm/clibraries/android-aarch64 -L/home/usuario/.gluon/substrate/javaStaticSdk/11-ea+1/android-aarch64/labs-staticjdk/lib/static -L/home/usuario/IdeaProjects/SpaceCubos/target/client/aarch64-android/gvm/lib -Wl,--whole-archive /home/usuario/IdeaProjects/SpaceCubos/target/client/aarch64-android/gvm/lib/libstatusbar.a /home/usuario/IdeaProjects/SpaceCubos/target/client/aarch64-android/gvm/lib/libstorage.a /home/usuario/IdeaProjects/SpaceCubos/target/client/aarch64-android/gvm/lib/libdisplay.a /home/usuario/IdeaProjects/SpaceCubos/target/client/aarch64-android/gvm/lib/liblifecycle.a /home/usuario/IdeaProjects/SpaceCubos/target/client/aarch64-android/gvm/lib/libutil.a /home/usuario/IdeaProjects/SpaceCubos/target/client/aarch64-android/gvm/lib/libaudio.a -Wl,--no-whole-archive
[jue. jun. 03 20:01:43 CEST 2021][FINE] Start process link...
[jue. jun. 03 20:01:47 CEST 2021][FINE] Result for link: 0
[jue. jun. 03 20:01:47 CEST 2021][FINE] Logging process [link] to file: /home/usuario/IdeaProjects/SpaceCubos/target/client/log/process-link-1622743307459.log
