[
{
  "name":"com.almasb.fxgl.achievement.AchievementService",
  "allDeclaredFields":true,
  "methods":[{"name":"<init>","parameterTypes":[] }]
},
{
  "name":"com.almasb.fxgl.app.FXGLApplication",
  "methods":[{"name":"<init>","parameterTypes":[] }]
},
{
  "name":"com.almasb.fxgl.app.GameApplication$GameApplicationService",
  "allDeclaredFields":true,
  "methods":[{"name":"<init>","parameterTypes":[] }]
},
{
  "name":"com.almasb.fxgl.app.ReadOnlyGameSettings",
  "allDeclaredMethods":true
},
{
  "name":"com.almasb.fxgl.app.services.AssetLoaderService",
  "allDeclaredFields":true,
  "methods":[{"name":"<init>","parameterTypes":[] }]
},
{
  "name":"com.almasb.fxgl.app.services.FXGLDialogService",
  "allDeclaredFields":true,
  "methods":[{"name":"<init>","parameterTypes":[] }]
},
{
  "name":"com.almasb.fxgl.app.services.IOTaskExecutorService",
  "allDeclaredFields":true,
  "methods":[{"name":"<init>","parameterTypes":[] }]
},
{
  "name":"com.almasb.fxgl.app.services.SystemBundleService",
  "allDeclaredFields":true,
  "methods":[{"name":"<init>","parameterTypes":[] }]
},
{
  "name":"com.almasb.fxgl.app.services.UpdaterService",
  "allDeclaredFields":true,
  "methods":[{"name":"<init>","parameterTypes":[] }]
},
{
  "name":"com.almasb.fxgl.app.services.WindowService",
  "allDeclaredFields":true,
  "methods":[{"name":"<init>","parameterTypes":[] }]
},
{
  "name":"com.almasb.fxgl.audio.AudioPlayer",
  "allDeclaredFields":true,
  "methods":[{"name":"<init>","parameterTypes":[] }]
},
{
  "name":"com.almasb.fxgl.core.EngineService",
  "allDeclaredFields":true
},
{
  "name":"com.almasb.fxgl.cutscene.CutsceneService",
  "allDeclaredFields":true,
  "methods":[{"name":"<init>","parameterTypes":[] }]
},
{
  "name":"com.almasb.fxgl.entity.component.Component",
  "allDeclaredFields":true
},
{
  "name":"com.almasb.fxgl.entity.components.BooleanComponent",
  "allDeclaredFields":true
},
{
  "name":"com.almasb.fxgl.entity.components.BoundingBoxComponent",
  "allDeclaredFields":true
},
{
  "name":"com.almasb.fxgl.entity.components.CollidableComponent",
  "allDeclaredFields":true
},
{
  "name":"com.almasb.fxgl.entity.components.ObjectComponent",
  "allDeclaredFields":true
},
{
  "name":"com.almasb.fxgl.entity.components.TransformComponent",
  "allDeclaredFields":true
},
{
  "name":"com.almasb.fxgl.entity.components.TypeComponent",
  "allDeclaredFields":true
},
{
  "name":"com.almasb.fxgl.entity.components.ViewComponent",
  "allDeclaredFields":true
},
{
  "name":"com.almasb.fxgl.event.EventBusService",
  "allDeclaredFields":true,
  "methods":[{"name":"<init>","parameterTypes":[] }]
},
{
  "name":"com.almasb.fxgl.io.FileSystemService",
  "allDeclaredFields":true,
  "methods":[{"name":"<init>","parameterTypes":[] }]
},
{
  "name":"com.almasb.fxgl.localization.LocalizationService",
  "allDeclaredFields":true,
  "methods":[{"name":"<init>","parameterTypes":[] }]
},
{
  "name":"com.almasb.fxgl.minigames.MiniGameService",
  "allDeclaredFields":true,
  "methods":[{"name":"<init>","parameterTypes":[] }]
},
{
  "name":"com.almasb.fxgl.net.NetService",
  "allDeclaredFields":true,
  "methods":[{"name":"<init>","parameterTypes":[] }]
},
{
  "name":"com.almasb.fxgl.notification.NotificationService",
  "allDeclaredFields":true
},
{
  "name":"com.almasb.fxgl.notification.impl.NotificationServiceProvider",
  "allDeclaredFields":true,
  "methods":[{"name":"<init>","parameterTypes":[] }]
},
{
  "name":"com.almasb.fxgl.notification.view.XboxNotificationView",
  "methods":[{"name":"<init>","parameterTypes":[] }]
},
{
  "name":"com.almasb.fxgl.profile.SaveLoadService",
  "allDeclaredFields":true,
  "methods":[{"name":"<init>","parameterTypes":[] }]
},
{
  "name":"com.almasb.fxgl.scene.SceneService",
  "allDeclaredFields":true
},
{
  "name":"com.almasb.fxgl.ui.DialogFactoryService",
  "allDeclaredFields":true
},
{
  "name":"com.almasb.fxgl.ui.DialogService",
  "allDeclaredFields":true
},
{
  "name":"com.almasb.fxgl.ui.FXGLDialogFactoryServiceProvider",
  "allDeclaredFields":true,
  "methods":[{"name":"<init>","parameterTypes":[] }]
},
{
  "name":"com.almasb.fxgl.ui.FXGLUIFactoryServiceProvider",
  "allDeclaredFields":true,
  "methods":[{"name":"<init>","parameterTypes":[] }]
},
{
  "name":"com.almasb.fxgl.ui.UIFactoryService",
  "allDeclaredFields":true
},
{
  "name":"com.sun.javafx.font.freetype.FTFactory",
  "methods":[{"name":"getFactory","parameterTypes":[] }]
},
{
  "name":"com.sun.javafx.logging.PrintLogger",
  "methods":[{"name":"createInstance","parameterTypes":[] }]
},
{
  "name":"com.sun.javafx.logging.jfr.JFRPulseLogger",
  "methods":[{"name":"createInstance","parameterTypes":[] }]
},
{
  "name":"com.sun.javafx.scene.control.skin.Utils",
  "methods":[{"name":"getResource","parameterTypes":["java.lang.String"] }]
},
{
  "name":"com.sun.javafx.tk.quantum.QuantumToolkit",
  "methods":[{"name":"<init>","parameterTypes":[] }]
},
{
  "name":"com.sun.media.jfxmediaimpl.platform.gstreamer.GSTPlatform",
  "methods":[{"name":"getPlatformInstance","parameterTypes":[] }]
},
{
  "name":"com.sun.prism.GraphicsPipeline",
  "methods":[
    {"name":"getFontFactory","parameterTypes":[] }, 
    {"name":"getPipeline","parameterTypes":[] }
  ]
},
{
  "name":"com.sun.prism.es2.ES2Pipeline",
  "methods":[{"name":"getInstance","parameterTypes":[] }]
},
{
  "name":"com.sun.scenario.effect.impl.prism.PrRenderer",
  "methods":[{"name":"createRenderer","parameterTypes":["com.sun.scenario.effect.FilterContext"] }]
},
{
  "name":"com.sun.scenario.effect.impl.prism.sw.PSWRenderer",
  "methods":[{"name":"createRenderer","parameterTypes":["com.sun.scenario.effect.FilterContext"] }]
},
{
  "name":"com.sun.scenario.effect.impl.sw.sse.SSEBlend_SRC_INPeer",
  "methods":[{"name":"<init>","parameterTypes":["com.sun.scenario.effect.FilterContext","com.sun.scenario.effect.impl.Renderer","java.lang.String"] }]
},
{
  "name":"com.sun.scenario.effect.impl.sw.sse.SSEBoxBlurPeer",
  "methods":[{"name":"<init>","parameterTypes":["com.sun.scenario.effect.FilterContext","com.sun.scenario.effect.impl.Renderer","java.lang.String"] }]
},
{
  "name":"com.sun.scenario.effect.impl.sw.sse.SSERendererDelegate",
  "methods":[{"name":"<init>","parameterTypes":[] }]
},
{
  "name":"es.iesalbarregas.proyectofinal.modelo.App",
  "methods":[{"name":"<init>","parameterTypes":[] }]
},
{
  "name":"es.iesalbarregas.proyectofinal.modelo.Factory",
  "allDeclaredMethods":true
},
{
  "name":"java.lang.Character",
  "methods":[{"name":"isIdeographic","parameterTypes":["int"] }]
},
{
  "name":"java.lang.Object[]"
},
{
  "name":"java.net.URLConnection",
  "methods":[{"name":"getContentLengthLong","parameterTypes":[] }]
},
{
  "name":"java.nio.ByteBuffer",
  "methods":[{"name":"order","parameterTypes":["java.nio.ByteOrder"] }]
},
{
  "name":"java.nio.ByteOrder",
  "methods":[{"name":"nativeOrder","parameterTypes":[] }]
},
{
  "name":"java.security.MessageDigestSpi"
},
{
  "name":"java.security.SecureRandomParameters"
},
{
  "name":"javafx.scene.Camera"
},
{
  "name":"javafx.scene.Group"
},
{
  "name":"javafx.scene.Node"
},
{
  "name":"javafx.scene.ParallelCamera"
},
{
  "name":"javafx.scene.Parent"
},
{
  "name":"javafx.scene.Scene"
},
{
  "name":"javafx.scene.control.Control"
},
{
  "name":"javafx.scene.effect.Effect"
},
{
  "name":"javafx.scene.image.Image"
},
{
  "name":"javafx.scene.image.ImageView"
},
{
  "name":"javafx.scene.layout.Pane"
},
{
  "name":"javafx.scene.layout.Region"
},
{
  "name":"javafx.scene.shape.Circle"
},
{
  "name":"javafx.scene.shape.Line"
},
{
  "name":"javafx.scene.shape.Rectangle"
},
{
  "name":"javafx.scene.shape.Shape"
},
{
  "name":"javafx.scene.text.Font"
},
{
  "name":"javafx.scene.text.Text"
},
{
  "name":"javafx.scene.transform.Transform"
},
{
  "name":"javafx.stage.Stage"
},
{
  "name":"javafx.stage.Window"
},
{
  "name":"kotlin.jvm.internal.DefaultConstructorMarker"
},
{
  "name":"kotlin.reflect.jvm.internal.ReflectionFactoryImpl",
  "methods":[{"name":"<init>","parameterTypes":[] }]
},
{
  "name":"sun.misc.Unsafe",
  "fields":[{"name":"theUnsafe"}]
},
{
  "name":"sun.security.provider.MD5",
  "methods":[{"name":"<init>","parameterTypes":[] }]
},
{
  "name":"sun.security.provider.NativePRNG",
  "methods":[{"name":"<init>","parameterTypes":[] }]
},
{
  "name":"sun.security.provider.SHA",
  "methods":[{"name":"<init>","parameterTypes":[] }]
}
]
