{
  "resources":{
  "includes":[
    {"pattern":"\\Qassets/music/background.mp3\\E"}, 
    {"pattern":"\\Qassets/textures/background.jpg\\E"}, 
    {"pattern":"\\Qassets/textures/derecha.png\\E"}, 
    {"pattern":"\\Qassets/textures/gamemenu.jpg\\E"}, 
    {"pattern":"\\Qassets/textures/icono.png\\E"}, 
    {"pattern":"\\Qassets/textures/izquierda.png\\E"}, 
    {"pattern":"\\Qassets/textures/menu.jpg\\E"}, 
    {"pattern":"\\Qassets/textures/pausa.png\\E"}, 
    {"pattern":"\\Qfxglassets/properties/languages/english.properties\\E"}, 
    {"pattern":"\\Qfxglassets/properties/languages/french.properties\\E"}, 
    {"pattern":"\\Qfxglassets/properties/languages/german.properties\\E"}, 
    {"pattern":"\\Qfxglassets/properties/languages/hungarian.properties\\E"}, 
    {"pattern":"\\Qfxglassets/properties/languages/russian.properties\\E"}, 
    {"pattern":"\\Qfxglassets/textures/fxgl_icon.png\\E"}, 
    {"pattern":"\\Qfxglassets/textures/pause_menu_bg.png\\E"}, 
    {"pattern":"\\Qfxglassets/ui/css/fxgl_dark.css\\E"}, 
    {"pattern":"\\Qfxglassets/ui/cursors/fxgl_default.png\\E"}, 
    {"pattern":"\\Qfxglassets/ui/fonts/Abel-Regular.ttf\\E"}, 
    {"pattern":"\\Qfxglassets/ui/fonts/Courier-Prime.ttf\\E"}, 
    {"pattern":"\\Qfxglassets/ui/fonts/VarelaRound-Regular.ttf\\E"}, 
    {"pattern":"\\Qfxglassets/ui/fonts/lucida_console.ttf\\E"}
  ]},
  "bundles":[
    {"name":"com.almasb.fxgl.app.system"}, 
    {"name":"com.sun.javafx.tk.quantum.QuantumMessagesBundle"}, 
    {"name":"com/sun/javafx/scene/control/skin/resources/controls"}
  ]
}
